28.1030
27.7273
29.2884
29.5320
26.2109
24.1078
29.7558
30.5816
28.4002
31.1819
26.7067
26.4927
32.1103
27.8398
26.9866
28.6847
33.6800
27.2247
27.5682
28.6256
29.0077
29.1510
28.1701
26.4718
29.0014
33.6779
26.3045
29.9494
28.7993
33.0697
28.3353
29.5663
24.7054
30.0977
27.9856
26.7126
28.6470
30.1854
32.9976
28.2827
30.2917
33.2136
30.9340
25.9691
27.3029
24.5082
29.1875
27.6835
33.3111
29.2323
30.7484
29.8373
33.0520
28.4536
29.6312
28.7847
30.1147
31.0672
30.2904
31.5919
26.6368
34.2637
38.4130
24.8020
29.0427
30.4921
30.9513
26.7952
29.2431
0.8918
0.8767
0.9069
0.8964
0.9013
0.8308
0.9071
0.9401
0.8845
0.8923
0.8631
0.8699
0.9212
0.9047
0.8646
0.8967
0.9384
0.8840
0.7564
0.8704
0.9230
0.9073
0.8816
0.9191
0.9170
0.9457
0.8561
0.8980
0.9194
0.9482
0.8931
0.9459
0.8643
0.9102
0.9334
0.8777
0.8882
0.9322
0.9361
0.9170
0.9280
0.9426
0.9257
0.8339
0.8769
0.8809
0.9296
0.8870
0.9584
0.8906
0.9199
0.9026
0.9467
0.8797
0.9002
0.9004
0.9522
0.9031
0.9014
0.9158
0.8847
0.9704
0.9869
0.8902
0.8982
0.8921
0.8952
0.8335
0.9020
